
urso.png
size: 2048,512
format: RGBA8888
filter: Linear,Linear
repeat: none
O
  rotate: false
  xy: 2, 2
  size: 400, 408
  orig: 400, 408
  offset: 0, 0
  index: -1
O in
  rotate: false
  xy: 404, 2
  size: 400, 408
  orig: 400, 408
  offset: 0, 0
  index: -1
urso
  rotate: false
  xy: 806, 64
  size: 329, 346
  orig: 329, 346
  offset: 0, 0
  index: -1
